:020000040000FA
:1000000018F09FE518F09FE518F09FE518F09FE5C0
:1000100018F09FE50000A0E1F0FF1FE518F09FE554
:1000200058000000400000004400000048000000AC
:100030004C000000000000005000000054000000D0
:10004000FEFFFFEAFEFFFFEAFEFFFFEAFEFFFFEA18
:10005000FEFFFFEAFEFFFFEAA0009FE5AA10A0E373
:100060005520A0E32430A0E3043080E50130A0E374
:10007000003080E50C1080E50C2080E5083090E52C
:10008000013B13E2FCFFFF0A0330A0E3003080E5F0
:100090000C1080E50C2080E564009FE50410A0E3CF
:1000A000041080E50210A0E3001080E554009FE5F5
:1000B000DBF021E300D0A0E1000040E2D7F021E333
:1000C00000D0A0E1000040E2D1F021E300D0A0E1A7
:1000D000000040E2D2F021E300D0A0E1800040E245
:1000E000D3F021E300D0A0E1080040E210F021E3CA
:1000F00000D0A0E101AB4DE20C009FE510FF2FE125
:1001000080C01FE000C01FE0B005004010010000EB
:10011000000000EB2E0000EB2C008FE2000C90E8BA
:1001200000A08AE000B08BE001704AE20B005AE1C7
:100130000000001A260000EB0F00BAE818E04FE2BA
:10014000010013E303F0471013FF2FE1BC1200007E
:10015000DC120000102052E27800B0287800A128BC
:10016000FBFFFF8A822EB0E13000B0283000A128CA
:1001700000409045004081451EFF2FE10030B0E374
:100180000040B0E30050B0E30060B0E3102052E262
:100190007800A128FCFFFF8A822EB0E13000A12860
:1001A000003081451EFF2FE101C08FE21CFF2FE1CF
:1001B0001FB5059886460FBC009C02B07047000032
:1001C00001C08FE21CFF2FE130B47546AE4630BC53
:1001D000704700005E0400EB0210A0E1F1FFFFEBAE
:1001E0001CC09FE50FC08CE001001CE30DE08F12E6
:1001F0000FE0A0011CFF2FE101C08FE21CFF2FE1E7
:1002000001F0D8F8500000007847C04603002DE9FF
:10021000EAFFFFEB0300BDE86B0400EB0C009FE579
:100220000C109FE504209FE508309FE51EFF2FE19D
:100230002801004028050040280100400C139FE5DC
:100240000C039FE5CB0200EB6400A0E3AA0200EBE5
:10025000960DA0E3B30300EBF8029FE53B0300EB30
:10026000B90000EA820300EB010050E33300001AFA
:10027000E4029FE5810300EBDC029FE5440100EB13
:10028000D8029FE50000D0E5000050E3280000DA26
:10029000CC029FE50000D0E5000050E32400001AE6
:1002A000BC029FE50400D0E5000050E30600000A10
:1002B000010050E30900000A020050E30C00000AAC
:1002C000030050E31400001A0E0000EA0000A0E151
:1002D0000100A0E38C129FE50000C1E5130000EAD5
:1002E0000000A0E10100A0E37C129FE50000C1E551
:1002F0000E0000EA0000A0E10100A0E36C129FE5FF
:100300000000C1E5090000EA0000A0E10100A0E34F
:100310005C129FE50000C1E5040000EA0000A0E1D6
:100320000100A0E34C129FE50000C1E50000A0E140
:10033000020000EA0100A0E338129FE50000C1E5D9
:10034000190300EB000050E37F00001A28029FE52C
:100350000300D0E5010050E30F00001A0000A0E305
:1003600014129FE50300C1E5E8119FE5830F8FE2BA
:10037000620100EB00129FE50000D1E5D4119FE57A
:10038000870100EBCC119FE57E0F8FE2930100EB1C
:10039000C0019FE5ED0200EB6B0000EAD8019FE58C
:1003A0000200D0E5010050E30F00001A0000A0E3B6
:1003B000C4119FE50200C1E598119FE5720F8FE21D
:1003C0004E0100EBB0119FE50100D1E584119FE5DE
:1003D000730100EB7C119FE56A0F8FE27F0100EB58
:1003E00070019FE5D90200EB570000EA74019FE518
:1003F0000000D0E5010050E31000001A0000A0E367
:1004000060119FE50000C1E548119FE5060D8FE2F0
:100410003A0100EB48119FE50C1091E58100A0E145
:1004200030119FE55E0100EB28119FE5550F8FE22B
:100430006A0100EB1C019FE5C40200EB420000EAE8
:1004400024019FE50000D0E5010050E30B00001AF5
:100450000000A0E310119FE50000C1E5F4109FE546
:100460004D0F8FE2250100EBE8109FE5450F8FE26D
:100470005A0100EBDC009FE5B40200EB320000EA19
:10048000F0009FE50000D0E5010050E30B00001AEA
:100490000000A0E3DC109FE50000C1E5B4109FE57B
:1004A000410F8FE2150100EBA8109FE5D4008FE209
:1004B0004A0100EB9C009FE5A40200EB220000EA49
:1004C000A8009FE50000D0E5010050E30C00001AF1
:1004D0000000A0E394109FE50000C1E5020200EBDC
:1004E00070109FE5D0008FE2040100EB64109FE5DF
:1004F00090008FE2390100EB58009FE5930200EB7A
:10050000110000EA68009FE50000D0E5010050E31B
:100510000D00001A0000A0E354109FE50000C1E5A3
:100520003C109FE50C0091E5000200EB24109FE5D4
:1005300090008FE2F10000EB18109FE544008FE27D
:10054000260100EB0C009FE5800200EB44FFFFEA70
:10055000600E000040420F0058000040680000405C
:1005600045000040780000400000004001000040CD
:10057000030000400400004002000040540000401E
:100580006D696E20000000000A00000073656320A2
:100590000000000063616C6320000000696420615A
:1005A000726D20736572766F00000000756E6B6F60
:1005B0006E6F776E636F6D6D616E640063616C6CFE
:1005C0006962206F6B200000676F746F206F6B2073
:1005D0000000000030002DE90020A0E101C0A0E3F0
:1005E0000000A0E3D4419FE50000C4E50030A0E393
:1005F0000000A0E10310D2E7C0019FE50000D0E5B4
:10060000030050E30100000A000051E30300001A58
:10061000A8019FE50000D0E53000BDE81EFF2FE1F6
:1006200000005CE30200000A01005CE31900001A0C
:10063000060000EA0000A0E1200051E30100001ADA
:1006400001C0A0E3000000EA00C0A0E3110000EA3E
:100650000000A0E1200051E30C00000A00C0A0E36C
:10066000030082E058419FE550519FE50050D5E5D9
:10067000854184E0040084E540019FE50000D0E569
:10068000010080E234419FE50000C4E5000000EA7B
:1006900001C0A0E30000A0E10000A0E1010083E2AE
:1006A000FF3000E2D2FFFFEA70402DE90060A0E1D8
:1006B0000150A0E10040A0E30E0000EA04019FE524
:1006C000040280E0011080E20600A0E13E0000EBA1
:1006D000010050E30500001AE8009FE50402D0E79E
:1006E0000000C5E50100A0E37040BDE81EFF2FE15A
:1006F000010084E2FF4000E2040054E3EEFFFFBA91
:100700000000A0E3F7FFFFEA38402DE90050A0E326
:10071000190000EAA8009FE5854180E00D10A0E1E6
:10072000040094E5DFFFFFEB010050E30400001A32
:100730000000A0E30000C4E500009DE5040084E59E
:100740000B0000EA0D10A0E1040094E52F0000EB7F
:10075000010050E30400001A0100A0E30000C4E51A
:1007600000009DE5040084E5010000EA0200A0E32A
:100770000000C4E5010085E2FF5000E23C009FE577
:100780000000D0E5000055E1E1FFFFBA3840BDE8C8
:100790001EFF2FE110402DE90040A0E10400A0E180
:1007A0008BFFFFEB0020A0E32010A0E30400A0E1FA
:1007B000450000EBD3FFFFEB1040BDE81EFF2FE12B
:1007C0004500004078000040050000400020A0E106
:1007D0000130A0E10010A0E3060000EA0100D2E72A
:1007E000000050E30100001A0100A0E31EFF2FE10A
:1007F000010081E2FF1000E20100D2E701C0D3E76F
:100800000C0050E1F4FFFF0A0000A0E3F6FFFFEA4E
:1008100004402DE50020A0E10140A0E100C0A0E3DC
:100820000000D2E5300050E30500001A0100D2E5D7
:10083000780050E30200001A0200D2E5000050E305
:100840000200001A0000A0E304409DE41EFF2FE117
:100850000230A0E3160000EA060053E3010000DACC
:100860000000A0E3F7FFFFEA0CC2A0E1300051E373
:10087000040000BA390051E3020000CA300041E22E
:1008800000C08CE1080000EA410051E3040000BA16
:10089000460051E3020000CA370041E200C08CE18B
:1008A000010000EA0000A0E3E6FFFFEA010083E2A6
:1008B000FF3000E20310D2E7000051E3E5FFFF1A2A
:1008C00000C084E50100A0E3DEFFFFEA0130A0E103
:1008D0000010A0E3050000EA01C0D0E703005CE1DE
:1008E0000000001A0120C0E701C081E2FF100CE205
:1008F00001C0D0E700005CE3F6FFFF1A1EFF2FE106
:100900000020A0E10000A0E3030000EA0030D2E7ED
:100910000030C1E7013080E2FF0003E20030D2E79F
:10092000000053E3F8FFFF1A0030D2E70030C1E7C0
:100930001EFF2FE104402DE50030A0E130C0A0E310
:1009400000C0C1E578C0A0E301C0C1E500C0A0E3DC
:1009500006C0C1E50000A0E30D0000EA00C1A0E16F
:1009600033CCA0E10F200CE20A0052E3030000AAFE
:1009700030C082E2054060E204C0C1E7020000EA44
:1009800037C082E2054060E204C0C1E701C080E2F6
:10099000FF000CE2040050E3EFFFFFBA04409DE4C7
:1009A0001EFF2FE170402DE90060A0E10140A0E1B1
:1009B0000050A0E3010000EA010085E2FF5000E2E0
:1009C0000500D4E7000050E3FAFFFF1A051084E0A9
:1009D0000600A0E1D6FFFFEB7040BDE81EFF2FE14F
:1009E00070402DE90060A0E10140A0E10050A0E3CB
:1009F000010000EA010085E2FF5000E20500D4E7B3
:100A0000000050E3FAFFFF1A051084E00600A0E1A1
:100A1000BAFFFFEB7040BDE81EFF2FE14C019FE5E0
:100A2000180090E50F0880E340119FE5180081E56C
:100A30000108A0E3140081E51EFF2FE10F18A0E3D9
:100A400028219FE51C1082E5000050E30600000A03
:100A5000010050E30900000A020050E30C00000A04
:100A6000030050E31400001A0E0000EA0000A0E1A9
:100A70000118A0E3F4209FE5141082E5100000EABD
:100A80000000A0E10218A0E3E0209FE5141082E539
:100A90000B0000EA0000A0E10117A0E3CC209FE5D5
:100AA000141082E5060000EA0000A0E10217A0E3AE
:100AB000B8209FE5141082E5010000EA0000A0E1E3
:100AC0000000A0E10000A0E11EFF2FE104E02DE501
:100AD0000030A0E1000053E30200000A010053E3EC
:100AE0001200001A080000EA0000A0E180009FE563
:100AF000000090E5010080E274109FE5000081E5B0
:100B0000030000E2000081E5080000EA0000A0E127
:100B10005C009FE5000090E5010040E250109FE579
:100B2000000081E5030000E2000081E50000A0E193
:100B30000000A0E138109FE50000D1E5BEFFFFEB0B
:100B400004E09DE41EFF2FE104E02DE50000A0E39A
:100B5000DDFFFFEB04E09DE41EFF2FE104E02DE547
:100B60000100A0E3D8FFFFEB04E09DE41EFF2FE1AE
:100B7000008002E048000040BC019FE5000090E5D5
:100B8000010B10E30100001A0100A0E31EFF2FE19A
:100B90000000A0E3FCFFFFEA10402DE99C019FE567
:100BA0000000D0E5000050E30400000A010050E31B
:100BB0001200000A020050E34200001A1E0000EA80
:100BC0000000A0E1EBFFFFEB010050E30600001A7C
:100BD0000000A0E364119FE5040081E5080081E5C1
:100BE0000100A0E30000C1E5030000EAD5FFFFEB30
:100BF0000000A0E344119FE50000C1E5310000EAD8
:100C00000000A0E134019FE5080090E52C119FE56C
:100C1000041091E5010050E10300001A0100A0E377
:100C200018119FE50000C1E5020000EA0200A0E300
:100C300008119FE50000C1E5220000EA0000A0E1E4
:100C4000F8009FE5040090E5F0109FE5081091E59D
:100C5000010050E10800009ABAFFFFEBDC009FE5BD
:100C6000040090E5010040E2D0109FE5040081E51A
:100C70000200A0E30000C1E5110000EABC009FE50E
:100C8000040090E5B4109FE5081091E5010050E1E3
:100C90000800002AB0FFFFEBA0009FE5040090E5EC
:100CA000010080E294109FE5040081E50200A0E3CA
:100CB0000000C1E5020000EA0100A0E37C109FE50E
:100CC0000000C1E50000A0E10000A0E11040BDE887
:100CD0001EFF2FE160009FE5080090E5010BC0E3D7
:100CE00054109FE5080081E51EFF2FE10000A0E3FE
:100CF00048109FE50000C1E51EFF2FE170402DE97F
:100D00000040A0E144FFFFEBF1FFFFEBF6FFFFEB3C
:100D10000410A0E128009FE5B10100EB0050A0E124
:100D2000191E4FE2360000EB7040BDE81EFF2FE1B8
:100D300008109FE5080081E51EFF2FE1008002E01A
:100D40009000004040420F000F502DE90100A0E349
:100D500058119FE5000081E554019FE5000090E5F2
:100D60000FE0A0E110FF2FE10000A0E3D00F00E5AD
:100D70000F50BDE804F05EE234219FE5001082E5EB
:100D80000020A0E3F02F12E5102082E30030A0E362
:100D9000F02F03E52420A0E3002E03E55C204FE2C2
:100DA000002F03E5002260E000319FE5182083E575
:100DB0000320A0E1142092E5032082E3142083E5C0
:100DC0000320A0E1042092E5012082E3042083E5D2
:100DD0001EFF2FE10F502DE90100A0E3D4109FE585
:100DE000000081E5D0009FE5000090E50FE0A0E164
:100DF00010FF2FE10000A0E3D00F00E50F50BDE889
:100E000004F05EE2B0209FE5001082E50020A0E340
:100E1000F02F12E5202082E30030A0E3F02F03E55D
:100E20002520A0E3FC2D03E55C204FE2FC2E03E52A
:100E3000002260E07C309FE5182083E50320A0E1DC
:100E4000142092E5032082E3142083E50320A0E12F
:100E5000042092E5012082E3042083E51EFF2FE1B8
:100E60000100A0E354109FE50200C1E5000081E20B
:100E70000100D0E5010080E20100C1E5000081E24F
:100E80000100D0E53C0050E3070000BA000081E219
:100E90000000D0E5010080E20000C1E50100A0E310
:100EA0000300C1E50000A0E30100C1E51EFF2FE142
:100EB000004000E04C000040008000E05000004096
:100EC00054000040EC129FE51110D1E5000051E301
:100ED0001400001A0110A0E3D8229FE51010C2E50B
:100EE000001082E21210D1E50110D2E7000051E3B8
:100EF0000300001A0D00A0E30110A0E31110C2E5E9
:100F0000070000EA0000A0E1A8129FE51210D1E559
:100F1000A0229FE50100D2E70010A0E31110C2E576
:100F20000000A0E1030000EA0000A0E30010A0E33D
:100F300080229FE51010C2E578129FE51210D1E5DE
:100F4000011081E26C229FE51210C2E51EFF2FE125
:100F500010402DE90040A0E158129FE50400A0E1F7
:100F600066FEFFEB0000A0E348129FE51200C1E51A
:100F70001100C1E50100A0E31000C1E5000081E21D
:100F80001200D0E50000D1E72C129FE50000C1E57A
:100F900020029FE51200D0E5010080E214129FE5D7
:100FA0001200C1E51040BDE81EFF2FE104029FE5DD
:100FB0001000D0E51EFF2FE10000A0E3FC119FE52B
:100FC0001000C1E51EFF2FE10D0050E31200001AD2
:100FD0000000A0E3E4119FE51010D1E5DC219FE5BE
:100FE0000100C2E7001082E21010D1E5100051E3C9
:100FF000020000AA0110A0E31110C2E5020000EAFD
:101000000210A0E3B4219FE51110C2E50010A0E397
:10101000A8219FE51010C2E5130000EA0000A0E13E
:1010200098119FE51010D1E50F0051E3030000BABD
:101030000210A0E384219FE51110C2E5090000EA37
:1010400078119FE51010D1E570219FE50100C2E7FE
:10105000001082E21010D1E5011081E21010C2E50B
:101060000010A0E31110C2E50000A0E10000A0E123
:101070001EFF2FE144019FE51100D0E51EFF2FE187
:101080000010A0E10000A0E3040000EA2C219FE58D
:101090000020D2E70020C1E7012080E2FF0002E249
:1010A00018219FE50020D2E7000052E3F6FFFF1A67
:1010B00008219FE50020D2E70020C1E70020A0E33F
:1010C000F8309FE51120C3E51EFF2FE10F502DE9F9
:1010D000E4009FE50830D0E50F0003E2040050E390
:1010E0000200001AD0109FE50000D1E5B5FFFFEB2C
:1010F0000F0003E2020050E30600001AB4009FE56F
:101100001000D0E5010050E30200001A6CFFFFEB75
:10111000A4109FE50000C1E50000A0E3D00F00E5AA
:101120000F50BDE804F05EE210402DE90040A0E160
:101130008C009FE5000090E5050080E380109FE5AE
:10114000000081E5020841E20C00D0E5830080E365
:10115000021841E20C00C1E50410A0E164009FE523
:101160009F0000EB50109FE50000C1E50100A0E1E9
:101170000C00D0E58000C0E30C00C1E50100A0E157
:101180000400D0E5030080E30400C1E5C8004FE29D
:101190000010A0E3F80E01E52600A0E3F80D01E53C
:1011A0000000A0E3F00F10E5400080E3F00F01E540
:1011B0001040BDE81EFF2FE19C00004000C000E091
:1011C000AF00004000C002E01C4E0E00013090E174
:1011D0002100004A0020B0E3A03071E01A00003A7C
:1011E000203271E00F00003A203471E00100003A33
:1011F00000C0A0E3200000EAA03371E0810340209A
:101200000220B2E0203371E0010340200220B2E06E
:10121000A03271E0810240200220B2E0203271E071
:10122000010240200220B2E0A03171E081014020A3
:101230000220B2E0203171E0010140200220B2E042
:10124000A03071E0810040200220B2E0011050E0A7
:101250000010A0310200A2E01EFF2FE1022111E2E6
:101260000010614240C032E000006022203271E094
:101270001D00003A203471E00F00003A0113A0E194
:10128000203471E03F2382E30B00003A0113A0E118
:10129000203471E03F2682E30700003A0113A0E109
:1012A000203471E03F2982E30113A0213F2C8223E7
:1012B000003071E21D00002A2113A021A03371E04B
:1012C000810340200220B2E0203371E0010340207E
:1012D0000220B2E0A03271E0810240200220B2E0A0
:1012E000203271E0010240200220B2E0A03171E022
:1012F000810140200220B2E0203171E00101402054
:101300000220B2E0EBFFFF2AA03071E08100402014
:101310000220B2E0011050E00010A0310200A2E073
:10132000CCCFB0E100006042001061221EFF2FE12F
:10133000CCCFB0E10000604201402DE90000B0E3F5
:101340000000A0E10240BDE81EFF2FE1704770479A
:10135000704700000E50A0E1180000EB05E0A0E18E
:101360000050B0E10D10A0E10A30A0E10700C0E399
:1013700000D0A0E160D08DE220402DE9A6FBFFEB7C
:101380002040BDE80060A0E30070A0E30080A0E37F
:1013900000B0A0E30710C1E305C0A0E1C009ACE8BC
:1013A000C009ACE8C009ACE8C009ACE801D0A0E1D4
:1013B0001EFF2FE10400C046C0462000FEF724FFB8
:1013C00000009FE51EFF2FE1C400004001C08FE236
:1013D0001CFF2FE101491820ABDFFEE726000200C9
:1013E0001EFF2FE10020B0E3203171E093FFFF3AB0
:1013F000A03271E088FFFF3A203471E07DFFFF3AB0
:1014000000C0A0E39CFFFFEA281400000000004099
:1014100058000000540100008014000058000040F3
:10142000580500007C01000000000000000063611E
:101430006C6300000000000000000000000169640F
:1014400000000000000000000000000000026361D6
:101450006C6C696200000000000000000003676F10
:10146000746F000000000000000000000000000099
:10147000000000000000000000000000000000006C
:0400000500000110E6
:00000001FF
